// Jest Snapshot v1, https://goo.gl/fbAQLP

exports[`the PokemonDetail component match a snapshot after two display 1`] = `
<div
  class="pokemon-detail"
>
  <h2>
    blastoise
  </h2>
  <img
    src="https://raw.githubusercontent.com/PokeAPI/sprites/master/sprites/pokemon/back/9.png"
  />
  <img
    src="https://raw.githubusercontent.com/PokeAPI/sprites/master/sprites/pokemon/back/shiny/9.png"
  />
  <img
    src="https://raw.githubusercontent.com/PokeAPI/sprites/master/sprites/pokemon/9.png"
  />
  <img
    src="https://raw.githubusercontent.com/PokeAPI/sprites/master/sprites/pokemon/shiny/9.png"
  />
  <div
    class="property"
  >
    <b>
      id
    </b>
     : 9
  </div>
  <div
    class="property"
  >
    <b>
      abilities
    </b>
     : rain-dish,torrent
  </div>
  <div
    class="property"
  >
    <b>
      species
    </b>
     : blastoise
  </div>
  <div
    class="property"
  >
    <b>
      order
    </b>
     : 12
  </div>
  <div
    class="property"
  >
    <b>
      is_default
    </b>
     : true
  </div>
  <div
    class="property"
  >
    <b>
      height
    </b>
     : 16
  </div>
  <div
    class="property"
  >
    <b>
      weight
    </b>
     : 855
  </div>
  <div
    class="property"
  >
    <b>
      base_experience
    </b>
     : 239
  </div>
</div>
`;

exports[`the PokemonDetail component match a snapshot with pokemon bulbasaur 1`] = `
<div
  class="pokemon-detail"
>
  <h2>
    bulbasaur
  </h2>
  <img
    src="https://raw.githubusercontent.com/PokeAPI/sprites/master/sprites/pokemon/back/1.png"
  />
  <img
    src="https://raw.githubusercontent.com/PokeAPI/sprites/master/sprites/pokemon/back/shiny/1.png"
  />
  <img
    src="https://raw.githubusercontent.com/PokeAPI/sprites/master/sprites/pokemon/1.png"
  />
  <img
    src="https://raw.githubusercontent.com/PokeAPI/sprites/master/sprites/pokemon/shiny/1.png"
  />
  <div
    class="property"
  >
    <b>
      id
    </b>
     : 1
  </div>
  <div
    class="property"
  >
    <b>
      abilities
    </b>
     : chlorophyll,overgrow
  </div>
  <div
    class="property"
  >
    <b>
      species
    </b>
     : bulbasaur
  </div>
  <div
    class="property"
  >
    <b>
      order
    </b>
     : 1
  </div>
  <div
    class="property"
  >
    <b>
      is_default
    </b>
     : true
  </div>
  <div
    class="property"
  >
    <b>
      height
    </b>
     : 7
  </div>
  <div
    class="property"
  >
    <b>
      weight
    </b>
     : 69
  </div>
  <div
    class="property"
  >
    <b>
      base_experience
    </b>
     : 64
  </div>
</div>
`;

exports[`the PokemonDetail component match an empty snapshot 1`] = `
<div
  class="pokemon-detail"
/>
`;
